Reading data
…
Rows: 23 Columns: 5
── Column specification ────────────────────────────────────────────────────────

chr (1): brand
dbl (4): tar, nicotine, weight, co

ℹ Use `spec()` to retrieve the full column specification for this data.
ℹ Specify the column types or set `show_col_types = FALSE` to quiet this message.

# A tibble: 23 × 5
   brand          tar nicotine weight    co
   <chr>        <dbl>    <dbl>  <dbl> <dbl>
 1 Alpine        14.1     0.86  0.985  13.6
 2 Benson        16       1.06  1.09   16.6
 3 CamelLights    8       0.67  0.928  10.2
 4 Carlton        4.1     0.4   0.946   5.4
 5 Chesterfield  15       1.04  0.888  15  
 6 GoldenLights   8.8     0.76  1.03    9  
 7 Kent          12.4     0.95  0.922  12.3
 8 Kool          16.6     1.12  0.937  16.3
 9 L&M           14.9     1.02  0.886  15.4
10 LarkLights    13.7     1.01  0.964  13  
# ℹ 13 more rows
…
Response [https://www4.stat.ncsu.edu/~online/datasets/Dry_Bean_Dataset.xlsx]
  Date: 2024-06-03 15:55
  Status: 200
  Content-Type: application/vnd.openxmlformats-officedocument.spreadsheetml.sheet
  Size: 3.04 MB
<ON DISK>  C:\Users\ag434\AppData\Local\Temp\RtmpGmkhhE\file5ea866d13e2b.xlsx

# Read the downloaded file
dry_bean_data <- read_excel(temp_file)
dry_bean_data

# A tibble: 13,611 × 17
    Area Perimeter MajorAxisLength MinorAxisLength AspectRatio Eccentricity
   <dbl>     <dbl>           <dbl>           <dbl>       <dbl>        <dbl>
 1 28395      610.            208.            174.        1.20        0.550
 2 28734      638.            201.            183.        1.10        0.412
 3 29380      624.            213.            176.        1.21        0.563
 4 30008      646.            211.            183.        1.15        0.499
 5 30140      620.            202.            190.        1.06        0.334
 6 30279      635.            213.            182.        1.17        0.520
 7 30477      670.            211.            184.        1.15        0.489
 8 30519      630.            213.            183.        1.17        0.514
 9 30685      636.            214.            183.        1.17        0.514
10 30834      632.            217.            181.        1.20        0.554
# ℹ 13,601 more rows
# ℹ 11 more variables: ConvexArea <dbl>, EquivDiameter <dbl>, Extent <dbl>,
#   Solidity <dbl>, Roundness <dbl>, Compactness <dbl>, ShapeFactor1 <dbl>,
#   ShapeFactor2 <dbl>, ShapeFactor3 <dbl>, ShapeFactor4 <dbl>, Class <chr>
…
